-1.706628890226193452e-06
1.323238718896688508e-03
3.497645424825746030e-02
2.341930142296197170e-01
5.726942584651656398e-01
4.032366789597398027e-01
-2.551472442754054715e-01
-1.180398462338823756e-01
2.363286083002640314e-01
-1.398996261680958419e-01
-9.000279703875834272e-03
1.059867510619469655e-01
-1.250406498384658560e-01
8.820835693788167675e-02
-2.901889341266446903e-02
-2.331296870729848356e-02
5.437474271710438650e-02
-6.195537635061350301e-02
5.117026635551805147e-02
-3.044309240238598016e-02
8.036320728027268254e-03
1.018964541291370561e-02
-2.140095447515892590e-02
2.530742800488668467e-02
-2.327207261030148425e-02
1.744254903007354945e-02
-1.005450674874367942e-02
2.957089622757128836e-03
2.633288289020924069e-03
-6.169555069249044177e-03
7.662128026488712954e-03
-7.489466434504050106e-03
6.202840059551039710e-03
-4.365705601705804212e-03
2.449504974536868222e-03
-7.828043280108656563e-04
-4.556355520348858183e-04
1.216414058865181039e-03
-1.543554200128237699e-03
1.535416214715447630e-03
-1.309660138028479305e-03
9.778754463292704292e-04
-6.282112398807788078e-04
3.203651681854137023e-04
-8.538298699457153864e-05
-6.914710476708409419e-05
1.508992101629865075e-04
-1.764757357460407727e-04
1.647297765049202199e-04
-1.332315922893361328e-04
9.524478212534168988e-05
-5.981218835410189680e-05
3.152681892850737306e-05
-1.191204057607544550e-05
2.233507608014146137e-07
5.423414627665119326e-06
-6.752065307304303098e-06
5.961747230622374017e-06
-4.392564962427820083e-06
2.703116899955581492e-06
-1.317196794469881025e-06
4.925170622800424353e-07
-1.603543923702463866e-07
-4.581554067721325426e-08
-0.000000000000000000e+00
-0.000000000000000000e+00
