-0.000000000000000000e+00
-0.000000000000000000e+00
-1.138553515525361075e-07
7.644573604241709751e-07
-1.447589469739387488e-06
2.195781779941767739e-07
6.676803116045151984e-06
-2.355179272115318054e-05
4.907978904425395512e-05
-6.889875273950613337e-05
5.122677567353035090e-05
4.739635634629859749e-05
-2.563941191712003722e-04
5.485957464056734085e-04
-7.976543279268461222e-04
7.713537417182103010e-04
-1.955303012412589543e-04
-1.091799628662823256e-03
2.934247590111516580e-03
-4.696305540839008572e-03
5.285108491392949935e-03
-3.464520757442342801e-03
-1.540137605501377569e-03
9.318889741547750627e-03
-1.776012550565277473e-02
2.310092552900513616e-02
-2.076537003998241149e-02
6.897682498057072613e-03
1.986388776396476319e-02
-5.704123022439147594e-02
9.797517308161834970e-02
-1.323186802394777928e-01
1.411548639530683380e-01
8.132525110895435505e-01
1.881711874009347751e-01
-1.508132622204206297e-01
9.457232939461704402e-02
-5.510840551138541238e-02
8.755004847933593390e-03
9.160801585917055859e-03
-2.812815978165670444e-02
2.039015159641591884e-02
-2.074096433212461316e-02
3.940257211379504139e-03
-3.589867366976574187e-03
-8.369173459097382223e-03
2.157680899797222336e-03
-8.419375536606939214e-03
-9.854993929383089844e-04
-4.407007225069125775e-03
-4.105249880829350481e-03
-2.693256473500351984e-03
-4.457648458934671334e-03
-3.058000224724012357e-03
-3.798775672025256085e-03
-3.553132751050659677e-03
-3.478272857404866424e-03
-3.616159820660098771e-03
-3.472929788407008115e-03
-3.532264691616101432e-03
-3.491211704856301071e-03
-3.481322554321452691e-03
-3.470750271677288615e-03
-3.454420161254610940e-03
-3.441887940058720782e-03
-3.428265960497970440e-03
-3.414831029014771171e-03
-3.401453025207348824e-03
-3.388115684025479624e-03
-3.374843403044499018e-03
-3.361611784689071559e-03
-3.348437094009421022e-03
-3.335311198480436171e-03
-3.322242230627227375e-03
-3.309222057924683397e-03
-3.296250680372805105e-03
-3.283336230496703301e-03
-3.270462443246155947e-03
-3.257645583671384647e-03
-3.244877519247278599e-03
-3.232158249973838236e-03
-3.219495908376174362e-03
-3.206874229404064070e-03
-3.194309478107731134e-03
-3.181785389436951779e-03
-3.169318228441949346e-03
-3.156891730072500929e-03
-3.144522159378829000e-03
-3.132201383835822757e-03
-3.119921270918370529e-03
-3.107698085676694356e-03
-3.095515563060573065e-03
-3.083381835595117460e-03
-3.071296903280326673e-03
-3.059260766116201138e-03
-3.047273424102741723e-03
-3.035326744714835889e-03
-3.023428860477596174e-03
-3.011579771391021277e-03
-2.999779477455112066e-03
-2.988019846144757304e-03
-2.976309009985068227e-03
-2.964646968976043968e-03
-2.953025590592574592e-03
-2.941453007359770035e-03
-2.929921086752520359e-03
-2.918437961295935936e-03
-2.907003630990017198e-03
-2.895609963309652476e-03
-2.884256958254842636e-03
-2.872952748350697614e-03
-2.861697333597218711e-03
-2.850482581469293824e-03
-2.839308491966923385e-03
-2.828183197615218199e-03
-2.817098565889067895e-03
-2.806054596788472039e-03
-2.795059422838541436e-03
-2.784104911514165281e-03
-2.773191062815343576e-03
-2.762317876742076319e-03
-2.751493485819474314e-03
-2.740709757522426758e-03
-2.729966691850934518e-03
-2.719272421330106663e-03
-2.708610680909722887e-03
-2.697997735640004363e-03
-2.687425452995840288e-03
-2.676885700452119859e-03
-2.666394743059064681e-03
-2.655944448291563953e-03
-2.645534816149618107e-03
-2.635165846633226276e-03
-2.624845672267499697e-03
-2.614558028002217198e-03
-2.604311046362489147e-03
-2.594096594823204309e-03
-2.583930938434585156e-03
-2.573805944671520018e-03
-2.563721613534009763e-03
-2.553669812496943154e-03
-2.543658674085430560e-03
-2.533696330824584085e-03
-2.523758385139069586e-03
-2.513869234604220772e-03
-2.504020746694926407e-03
-2.494204788886075688e-03
-2.484429493702779417e-03
-2.474694861145037596e-03
-2.464992758687739420e-03
-2.455331318855995260e-03
-2.445710541649805982e-03
-2.436122294544060349e-03
-2.426574710063869166e-03
-2.417067788209232432e-03
-2.407593396455038910e-03
-2.398151534801289467e-03
-2.388758468298205276e-03
-2.379397931895564731e-03
-2.370069925593367398e-03
-2.360782581916724947e-03
-2.351527768340526143e-03
-2.342313617389881353e-03
-2.333131996539680644e-03
-2.323982905789923146e-03
-2.314874477665720531e-03
-2.305806712167071931e-03
-2.296771476768866976e-03
-2.287768771471106102e-03
-2.278798596273788439e-03
-2.269869083702024792e-03
-2.260972101230705224e-03
-2.252107648859829302e-03
-2.243283859114507828e-03
-2.234492599469630001e-03
-2.225733869925195386e-03
-2.217007670481204850e-03
-2.208322133662768329e-03
-2.199669126944775455e-03
-2.191048650327226659e-03
-2.182460703810120643e-03
-2.173905287393458705e-03
-2.165382401077240414e-03
-2.156900177386576571e-03
-2.148442351271245571e-03
-2.140025187781468587e-03
-2.131640554392135248e-03
-2.123280318578134752e-03
-2.114960745389688705e-03
-2.106673702301686303e-03
-2.098411056789016311e-03
-2.090189073901901201e-03
-2.081999621115229737e-03
-2.073834565903890249e-03
-2.065710173318105643e-03
-2.057618310832765116e-03
-2.049550845922756565e-03
-2.041515911113192094e-03
-2.033513506404070834e-03
-2.025543631795393221e-03
-2.017606287287159253e-03
-2.009701472879368931e-03
-2.001821056046911452e-03
-1.993973169314897619e-03
-1.986165945208437800e-03
-1.978374986152200022e-03
-1.970624689721516259e-03
-1.962898790866165772e-03
-1.955205422111258931e-03
-1.947544583456795302e-03
-1.939908142377664516e-03
-1.932312363924088179e-03
-1.924732850520733665e-03
-1.917193999742933599e-03
-1.909679546540466160e-03
-1.902189490913331563e-03
-1.894740097911751416e-03
-1.887315102485503894e-03
-1.879914504634588781e-03
-1.872546436884117748e-03
-1.865210899234089710e-03
-1.857899759159394731e-03
-1.850613016660032813e-03
-1.843358804261113672e-03
-1.836137121962638829e-03
-1.828939837239496394e-03
-1.821775082616797388e-03
-1.814634725569431225e-03
-1.807518766097397688e-03
-1.800435336725807797e-03
-1.793384437454661551e-03
-1.786349803233736695e-03
-1.779347699113256135e-03
-1.772378125093218354e-03
-1.765432948648513632e-03
-1.758512169779141970e-03
-1.751615788485102717e-03
-1.744751937291506676e-03
-1.737912483673243694e-03
-1.731105560155424142e-03
-1.724323034212937433e-03
-1.717564905845783132e-03
-1.710831175053961891e-03
-1.704121841837473277e-03
-1.697445038721427874e-03
-1.690792633180715314e-03
-1.684164625215335814e-03
-1.677569147350399525e-03
-1.670989934535685060e-03
-1.664443251821414458e-03
-1.657920966682476264e-03
-1.651423079118870480e-03
-1.644949589130597755e-03
-1.638500496717657873e-03
-1.632075801880050617e-03
-1.625683637142886573e-03
-1.619307737455944786e-03
-1.612964367869446211e-03
-1.606645395858280262e-03
-1.600342688897336352e-03
-1.594072512036836088e-03
-1.587826732751668451e-03
-1.581605351041833439e-03
-1.575400234382220250e-03
-1.569227647823050490e-03
-1.563079458839213573e-03
-1.556955667430709499e-03
-1.550848141072426814e-03
-1.544773144814587992e-03
-1.538714413606970775e-03
-1.532688212499797205e-03
-1.526678276442845674e-03
-1.520700870486337572e-03
-1.514739729580051077e-03
-1.508802986249097424e-03
-1.502890640493476397e-03
-1.496994559788077193e-03
-1.491131009183121634e-03
-1.485283723628387899e-03
-1.479460835648986790e-03
-1.473662345244918306e-03
-1.467888252416182449e-03
-1.462138557162779434e-03
-1.456405126959598026e-03
-1.450696094331749460e-03
-1.445011459279233737e-03
-1.439351221802050423e-03
-1.433707249375088932e-03
-1.428087674523460283e-03
-1.422492497247164044e-03
-1.416913585021089845e-03
-1.411367202895459291e-03
-1.405828953294939541e-03
-1.400323233794863219e-03
-1.394833779345008937e-03
-1.389368722470487065e-03
-1.383919930646187015e-03
-1.378495536397220025e-03
-1.373095539723585444e-03
-1.367711808100172469e-03
-1.362352474052092553e-03
-1.357009405054234244e-03
-1.351690733631708561e-03
-1.346396459784515720e-03
-1.341118450987544486e-03
-1.335864839765906094e-03
-1.330627493594489525e-03
-1.325414544998405365e-03
-1.320217861452543245e-03
-1.315045575482013751e-03
-1.309889554561706080e-03
-1.304757931216730818e-03
-1.299642572921977813e-03
-1.294551612202557217e-03
-1.289476916533358443e-03
-1.284418485914381493e-03
-1.279384452870737168e-03
-1.274374817402425687e-03
-1.269381446984335811e-03
-1.264404341616467758e-03
-1.259451633823932548e-03
-1.254515191081618944e-03
-1.249595013389527380e-03
-1.244699233272768225e-03
-1.239819718206230893e-03
-1.234956468189915601e-03
-1.230117615748932717e-03
-1.225295028358171657e-03
-1.220496838542743439e-03
-1.215714913777536828e-03
-1.210949254062552039e-03
-1.206199859397789073e-03
-1.201474862308358951e-03
-1.196766130269150434e-03
-1.192073663280163740e-03
-1.187405593866509889e-03
-1.182745656977966624e-03
-1.178110117664756418e-03
-1.173498975926878622e-03
-1.168895966714111846e-03
-1.164317355076677695e-03
-1.159755008489465368e-03
-1.155208926952474863e-03
-1.150679110465705965e-03
-1.146165559029159106e-03
-1.141676405167944873e-03
-1.137203516356952463e-03
-1.132746892596181660e-03
-1.128306533885632679e-03
-1.123882440225305521e-03
-1.119482744140311205e-03
-1.115091180580427693e-03
-1.110724014595876807e-03
-1.106364981136436724e-03
-1.102030345252329483e-03
-1.097711974418444066e-03
-1.093409868634780471e-03
-1.089124027901338483e-03
-1.084854452218118534e-03
-1.080601141585119974e-03
-1.076372228527454475e-03
-1.072151447994899778e-03
-1.067946932512566687e-03
-1.063766814605566439e-03
-1.059594829223677211e-03
-1.055439108892009589e-03
-1.051307786135674809e-03
-1.047184595904450833e-03
-1.043077670723448680e-03
-1.038995143117778935e-03
-1.034920748037220428e-03
-1.030862618006883526e-03
-1.026820753026768448e-03
-1.022795153096875409e-03
-1.018793950742314779e-03
-1.014800880912864953e-03
-1.010815943608526363e-03
-1.006855403879520399e-03
-1.002911129200736041e-03
-9.989831195721735058e-04
-9.950632424687219906e-04
-9.911677629406031014e-04
-9.872804159375950152e-04
-9.834093339848087520e-04
-9.795545170822443116e-04
-9.757159652299015858e-04
-9.718936784277806828e-04
-9.680876566758817112e-04
-9.642897674490935427e-04
-9.605081432725271970e-04
-9.567509166712933688e-04
-9.529936900700598660e-04
-9.492608610441587722e-04
-9.455442970684796097e-04
-9.418358656179112503e-04
-9.381436992175648222e-04
-9.344677978674400002e-04
-9.308081615675371095e-04
-9.271566577927450219e-04
-9.235214190681746487e-04
-9.199024453938263153e-04
-9.162997367696995880e-04
-9.127051606706837721e-04
-9.091268496218898876e-04
-9.055648036233177175e-04
-9.020190226749671535e-04
-8.984813742517277178e-04
-8.949599908787101051e-04
-8.914548725559140983e-04
-8.879578867582291115e-04
-8.844771660107658392e-04
-8.810127103135243897e-04
-8.775563871413936349e-04
-8.741244615445959397e-04
-8.706925359477979192e-04
-8.672850079263328500e-04
-8.638856124299784753e-04
-8.604943494587351206e-04
-8.571274840628242834e-04
-8.537687511920245744e-04
-8.504181508463357769e-04
-8.470838155508684771e-04
-8.437657453056231086e-04
-8.404558075854887600e-04
-8.371621349155761258e-04
-8.338847272958853146e-04
-8.306154522013054148e-04
-8.273624421569471211e-04
-8.241175646376998473e-04
-8.208889521686743964e-04
-8.176684722247598569e-04
-8.144642573310670319e-04
-8.112763074875959214e-04
-8.080964901692358308e-04
-8.049248053759865433e-04
-8.017693856329591870e-04
-7.986302309401534369e-04
-7.954992087724588150e-04
-7.923844516549857992e-04
-7.892778270626238032e-04
-7.861793349953726103e-04
-7.831052405034541518e-04
-7.800311460115356933e-04
-7.769733165698389492e-04
-7.739317521783640281e-04
-7.708983203120001269e-04
-7.678730209707470286e-04
-7.648639866797157533e-04
-7.618712174389061925e-04
-7.588784481980966317e-04
-7.559100765326199137e-04
-7.529417048671429788e-04
-7.499977307769987783e-04
-7.470537566868546862e-04
-7.441260476469323086e-04
-7.412146036572317539e-04
-7.383031596675311992e-04
-7.354079807280524675e-04
-7.325290668387954502e-04
-7.296582854746493443e-04
-7.267956366356142584e-04
-7.239492528468007785e-04
-7.211110015830983185e-04
-7.182890153696175730e-04
-7.154751616812477389e-04
-7.126694405179888163e-04
-7.098718518798408051e-04
-7.070905282919145085e-04
-7.043173372290992317e-04
-7.015604112165056694e-04
-6.988116177290230185e-04
-6.960709567666511707e-04
-6.933465608545012543e-04
-6.906302974674622492e-04
-6.879221666055339388e-04
-6.852221682687166483e-04
-6.825384349821212891e-04
-6.798628342206366245e-04
-6.771953659842629798e-04
-6.745441627981109411e-04
-6.719010921370699224e-04
-6.692661540011399235e-04
-6.666474809154315307e-04
-6.640288078297232463e-04
-6.614263997942366764e-04
-6.588402568089719294e-04
-6.562541138237071824e-04
-6.536842358886641498e-04
-6.511224904787321372e-04
-6.485688775939110360e-04
-6.460233972342007379e-04
-6.434941819247122627e-04
-6.409730991403345905e-04
-6.384601488810679381e-04
-6.359553311469121973e-04
-6.334667784629781709e-04
-6.309863583041550560e-04
-6.285059381453319410e-04
-6.260499155618415605e-04
-6.235938929783511799e-04
-6.211460029199716024e-04
-6.187143779118138478e-04
-6.162908854287670046e-04
-6.138755254708310729e-04
-6.114682980380060527e-04
-6.090692031302918355e-04
-6.066863732727995496e-04
-6.043035434153071553e-04
-6.019369786080365839e-04
-5.995785463258769240e-04
-5.972282465688280671e-04
-5.948860793368902300e-04
-5.925601771551741075e-04
-5.902342749734580934e-04
-5.879246378419636853e-04
-5.856150007104694941e-04
-5.833216286291969090e-04
-5.810363890730352353e-04
-5.787592820419845815e-04
-5.764903075360447307e-04
-5.742294655552157914e-04
-5.719767560994977636e-04
-5.697403116940014502e-04
-5.675038672885053537e-04
-5.652836879332308632e-04
-5.630635085779563728e-04
-5.608595942729037052e-04
-5.586638124929619491e-04
-5.564680307130201930e-04
-5.542885139833002598e-04
-5.521171297786911297e-04
-5.499538780991929110e-04
-5.477987589448056038e-04
-5.456517723155292080e-04
-5.435129182113637237e-04
-5.413821966323091508e-04
-5.392596075783653809e-04
-5.371451510495326310e-04
-5.350388270458106841e-04
-5.329406355671997570e-04
-5.308587091388104360e-04
-5.287767827104212235e-04
-5.267029888071429224e-04
-5.246373274289754243e-04
-5.225797985759189461e-04
-5.205304022479732709e-04
-5.184972709702494187e-04
-5.164641396925255664e-04
-5.144391409399126256e-04
-5.124222747124104879e-04
-5.104135410100192616e-04
-5.084129398327390552e-04
-5.064204711805696518e-04
-5.044361350535111598e-04
-5.024599314515635793e-04
-5.004918603747269103e-04
-4.985237892978902413e-04
-4.965719832712752867e-04
-4.946283097697712437e-04
-4.926927687933782204e-04
-4.907572278169849804e-04
-4.888379518908136717e-04
-4.869186759646424172e-04
-4.850075325635819657e-04
-4.831126542127433914e-04
-4.812177758619047086e-04
-4.793310300361769915e-04
-4.774524167355600774e-04
-4.755819359600541290e-04
-4.737195877096591463e-04
-4.718572394592640009e-04
-4.700111562590907868e-04
-4.681650730589175728e-04
-4.663352549089661275e-04
-4.645054367590145737e-04
-4.626837511341740398e-04
-4.608701980344443090e-04
-4.590647774598255438e-04
-4.572674894103176900e-04
-4.554702013608097821e-04
-4.536891783615236971e-04
-4.519081553622375578e-04
-4.501352648880623301e-04
-4.483786394641089252e-04
-4.466138815150446089e-04
-4.448653886162020612e-04
-4.431250282424704793e-04
-4.413846678687388431e-04
-4.396605725452290298e-04
-4.379364772217192166e-04
-4.362205144233202605e-04
-4.345045516249213587e-04
-4.328048538767441714e-04
-4.311051561285670383e-04
-4.294217234306116739e-04
-4.277382907326563095e-04
-4.260629905598118565e-04
-4.243876903869674036e-04
-4.227286552643447193e-04
-4.210696201417220893e-04
-4.194187175442103165e-04
-4.177759474718094009e-04
-4.161413099245194511e-04
-4.145066723772295012e-04
-4.128801673550503543e-04
-4.112617948579821731e-04
-4.096515548860249034e-04
-4.080494474391784909e-04
-4.064473399923320784e-04
-4.048533650705965232e-04
-4.032675226739719878e-04
-4.016898128024582013e-04
-4.001121029309445232e-04
-3.985425255845416481e-04
-3.969810807632497929e-04
-3.954277684670687407e-04
-3.938744561708877427e-04
-3.923374089249285135e-04
-3.907922291538583727e-04
-3.892633144330100007e-04
-3.877425322372725944e-04
-3.862217500415351338e-04
-3.847091003709085847e-04
-3.831964507002820356e-04
-3.816919335547663437e-04
-3.801955489343616175e-04
-3.787072968390677486e-04
-3.772271772688847911e-04
-3.757470576987017793e-04
-3.742750706536297333e-04
-3.728112161336685445e-04
-3.713473616137073557e-04
-3.698916396188570784e-04
-3.684440501491177125e-04
-3.669964606793782924e-04
-3.655570037347497837e-04
-3.641256793152322408e-04
-3.627024874208255550e-04
-3.612792955264188151e-04
-3.598642361571230408e-04
-3.584491767878272123e-04
-3.570422499436422953e-04
-3.556434556245682897e-04
-3.542527938306051956e-04
-3.528621320366420473e-04
-3.514796027677898104e-04
-3.501052060240484850e-04
-3.487308092803071595e-04
-3.473645450616767456e-04
-3.460064133681571888e-04
-3.446482816746376863e-04
-3.432982825062290411e-04
-3.419482833378203416e-04
-3.406145492196335192e-04
-3.392726825763357854e-04
-3.379470809832598203e-04
-3.366214793901839094e-04
-3.353040103222188015e-04
-3.339865412542537479e-04
-3.326772047113995515e-04
-3.313760006936563207e-04
-3.300747966759130358e-04
-3.287817251832806623e-04
-3.274967862157591460e-04
-3.262118472482376840e-04
-3.249350408058271334e-04
-3.236582343634165286e-04
-3.223895604461168352e-04
-3.211290190539280534e-04
-3.198684776617392715e-04
-3.186160687946613468e-04
-3.173636599275834764e-04
-3.161193835856164632e-04
-3.148832397687603615e-04
-3.136470959519042597e-04
-3.124190846601590152e-04
-3.111910733684138250e-04
-3.099793271268904576e-04
-3.087594483602560703e-04
-3.075477021187327030e-04
-3.063440884023201386e-04
-3.051404746859076285e-04
-3.039449934946060299e-04
-3.027576448284152884e-04
-3.015702961622245470e-04
-3.003910800211447170e-04
-2.992118638800648329e-04
-2.980407802640959143e-04
-2.968696966481269958e-04
-2.957067455572689346e-04
-2.945519269915217305e-04
-2.933971084257746349e-04
-2.922422898600274309e-04
-2.910956038193912468e-04
-2.899570503038658657e-04
-2.888184967883404845e-04
-2.876880757979260149e-04
-2.865576548075115994e-04
-2.854353663422079870e-04
-2.843212104020152861e-04
-2.832070544618226393e-04
-2.820928985216299384e-04
-2.809868751065482031e-04
-2.798889842165772708e-04
-2.787910933266063928e-04
-2.777013349617464804e-04
-2.766115765968864596e-04
-2.755299507571373503e-04
-2.744483249173882409e-04
-2.733748316027500972e-04
-2.723013382881118451e-04
-2.712359774985845587e-04
-2.701706167090572723e-04
-2.691133884446408431e-04
-2.680561601802244139e-04
-2.670070644409189503e-04
-2.659579687016134326e-04
-2.649170054874187721e-04
-2.638760422732241658e-04
-2.628432115841404710e-04
-2.618103808950567762e-04
-2.607856827310839386e-04
-2.597691170922220125e-04
-2.587444189282491749e-04
-2.577359858144981602e-04
-2.567194201756361799e-04
-2.557191195869960767e-04
-2.547106864732450620e-04
-2.537185184097158160e-04
-2.527182178210756586e-04
-2.517341822826573241e-04
-2.507420142191280781e-04
-2.497579786807096894e-04
-2.487820756674022664e-04
-2.478061726540947891e-04
-2.468384021658982775e-04
-2.458706316777017117e-04
-2.449028611895051459e-04
-2.439432232264194915e-04
-2.429917177884447215e-04
-2.420402123504699515e-04
-2.410887069124952086e-04
-2.401453339996312958e-04
-2.392019610867674373e-04
-2.382667206990144631e-04
-2.373314803112614617e-04
-2.364043724486194261e-04
-2.354772645859773362e-04
-2.345501567233352735e-04
-2.336311813858040680e-04
-2.327203385733837740e-04
-2.318013632358525684e-04
-2.308986529485432130e-04
-2.299878101361229189e-04
-2.290932323739244207e-04
-2.281905220866150110e-04
-2.272959443244165398e-04
-2.264094990873289259e-04
-2.255230538502413392e-04
-2.246366086131536982e-04
-2.237582959011770228e-04
-2.228799831892003204e-04
-2.220016704772235908e-04
-2.211314902903577728e-04
-2.202694426286028661e-04
-2.194073949668479595e-04
-2.185453473050930529e-04
-2.176914321684490306e-04
-2.168375170318050083e-04
-2.159836018951609860e-04
-2.151378192836278481e-04
-2.142920366720947373e-04
-2.134543865856724837e-04
-2.126167364992502572e-04
-2.117872189379389151e-04
-2.109577013766276001e-04
-2.101281838153162579e-04
-2.093067987791158002e-04
-2.084854137429153966e-04
-2.076640287067149388e-04
-2.068507761956253925e-04
-2.060456562096467576e-04
-2.052324036985571842e-04
-2.044272837125785493e-04
-2.036302962517108259e-04
-2.028333087908430483e-04
-2.020363213299752978e-04
-2.012474663942184587e-04
-2.004586114584615655e-04
-1.996697565227047264e-04
-1.988890341120587717e-04
-1.981083117014128170e-04
-1.973357218158777466e-04
-1.965549994052317919e-04
-1.957905420448076059e-04
-1.950179521592725355e-04
-1.942534947988483766e-04
-1.934971699635351021e-04
-1.927408451282218004e-04
-1.919845202929085530e-04
-1.912281954575952784e-04
-1.904800031473928882e-04
-1.897318108371905251e-04
-1.889917510520990193e-04
-1.882516912670075405e-04
-1.875116314819160618e-04
-1.867797042219354674e-04
-1.860477769619548730e-04
-1.853158497019742786e-04
-1.845920549671045956e-04
-1.838682602322349127e-04
-1.831444654973652026e-04
-1.824288032876064040e-04
-1.817131410778476054e-04
-1.809974788680888339e-04
-1.802899491834409197e-04
-1.795824194987930055e-04
-1.788830223392560027e-04
-1.781754926546080884e-04
-1.774842280201819700e-04
-1.767848308606449943e-04
-1.760935662262188488e-04
-1.754023015917927574e-04
-1.747110369573666390e-04
-1.740279048480514320e-04
-1.733447727387361979e-04
-1.726697731545318753e-04
-1.719947735703275526e-04
-1.713197739861232300e-04
-1.706447744019189074e-04
-1.699779073428254962e-04
-1.693110402837320579e-04
-1.686441732246386467e-04
-1.679854386906561199e-04
-1.673267041566735660e-04
-1.666761021478019506e-04
-1.660173676138194238e-04
-1.653667656049477813e-04
-1.647161635960761388e-04
-1.640736941123154078e-04
-1.634312246285546768e-04
-1.627887551447939458e-04
-1.621544181861440991e-04
-1.615200812274942524e-04
-1.608857442688444057e-04
-1.602514073101945591e-04
-1.596252028766556239e-04
-1.589989984431166615e-04
-1.583809265346886107e-04
-1.577547221011496754e-04
-1.571366501927215975e-04
-1.565185782842935466e-04
-1.559086389009763801e-04
-1.552986995176592407e-04
-1.546887601343420742e-04
-1.540788207510249076e-04
-1.534770138928186526e-04
-1.528752070346123975e-04
-1.522815327015170268e-04
-1.516797258433107717e-04
-1.510860515102154010e-04
-1.504923771771200303e-04
-1.499068353691355440e-04
-1.493131610360402004e-04
-1.487357517531666254e-04
-1.481502099451821391e-04
-1.475646681371976798e-04
-1.469872588543241049e-04
-1.464098495714505300e-04
-1.458405728136878395e-04
-1.452712960559251489e-04
-1.447020192981624855e-04
-1.441327425403998220e-04
-1.435634657826371043e-04
-1.430023215499853252e-04
-1.424411773173335461e-04
-1.418881656097926514e-04
-1.413270213771408723e-04
-1.407740096696000046e-04
-1.402209979620591099e-04
-1.396761187796290995e-04
-1.391231070720882047e-04
-1.385782278896582214e-04
-1.380414812323391225e-04
-1.374966020499091392e-04
-1.369598553925900132e-04
-1.364231087352709413e-04
-1.358863620779518424e-04
-1.353577479457436278e-04
-1.348210012884245288e-04
-1.342923871562163413e-04
-1.337719055491190111e-04
-1.332432914169108236e-04
-1.327228098098135205e-04
-1.322023282027161902e-04
-1.316818465956188871e-04
-1.311694975136324683e-04
-1.306571484316460766e-04
-1.301447993496596578e-04
-1.296324502676732390e-04
-1.291201011856868202e-04
-1.286158846288113129e-04
-1.281116680719357785e-04
-1.276155840401711826e-04
-1.271113674832956481e-04
-1.266152834515310252e-04
-1.261191994197664293e-04
-1.256231153880018063e-04
-1.251270313562371562e-04
-1.246390798495834447e-04
-1.241511283429297060e-04
-1.236631768362759945e-04
-1.231833578547331673e-04
-1.226954063480794287e-04
-1.222155873665366015e-04
-1.217357683849937879e-04
-1.212640819285618315e-04
-1.207842629470190043e-04
-1.203125764905870750e-04
-1.198408900341551322e-04
-1.193692035777232029e-04
-1.189056496464021580e-04
-1.184339631899702287e-04
-1.179704092586491838e-04
-1.175068553273281389e-04
-1.170514339211180190e-04
-1.165878799897969740e-04
-1.161324585835868135e-04
-1.156770371773766664e-04
-1.152216157711665465e-04
-1.147743268900672838e-04
-1.143270380089680483e-04
-1.138797491278687856e-04
-1.134324602467695500e-04
-1.129851713656702874e-04
-1.125460150096819361e-04
-1.120987261285826735e-04
-1.116595697725943358e-04
-1.112204134166059846e-04
-1.107893895857285042e-04
-1.103502332297401665e-04
-1.099192093988626996e-04
-1.094881855679852463e-04
-1.090652942622186909e-04
-1.086342704313412376e-04
-1.082113791255746686e-04
-1.077803552946972153e-04
-1.073655965140415442e-04
-1.069427052082749753e-04
-1.065198139025084063e-04
-1.061050551218527352e-04
-1.056902963411970913e-04
-1.052755375605414202e-04
-1.048607787798857356e-04
-1.044541525243409760e-04
-1.040393937436853049e-04
-1.036327674881405318e-04
-1.032261412325957722e-04
-1.028195149770509855e-04
-1.024210212466171238e-04
-1.020225275161832485e-04
-1.016159012606384618e-04
-1.012174075302046001e-04
-1.008270463248815956e-04
-1.004285525944477339e-04
-1.000381913891247566e-04
-9.963969765869088130e-05
-9.924933645336790394e-05
-9.886710777315581094e-05
-9.847674656783282003e-05
-9.808638536250984267e-05
-9.770415668229776322e-05
-9.732192800208567022e-05
-9.693969932187359076e-05
-9.655747064166149776e-05
-9.618337448656031621e-05
-9.580927833145912111e-05
-9.542704965124704166e-05
-9.505295349614586011e-05
-9.468698986615554935e-05
-9.431289371105436780e-05
-9.394693008106407060e-05
-9.357283392596287550e-05
-9.320687029597259185e-05
-9.284090666598229465e-05
-9.247494303599199746e-05
-9.211711193111259816e-05
-9.175928082623319886e-05
-9.139331719624290166e-05
-9.103548609136350236e-05
-9.067765498648410307e-05
-9.032795640671560167e-05
-8.997012530183620238e-05
-8.962042672206770098e-05
-8.927072814229919959e-05
-8.892102956253068464e-05
-8.857133098276218325e-05
-8.822163240299368185e-05
-8.788006634833607836e-05
-8.753036776856757697e-05
-8.718880171390995992e-05
-8.684723565925235643e-05
-8.650566960459475294e-05
-8.616410354993713589e-05
-8.583067002039041675e-05
-8.549723649084371116e-05
-8.515567043618610767e-05
-8.482223690663938853e-05
-8.448880337709268294e-05
-8.416350237265686170e-05
-8.383006884311014256e-05
-8.350476783867433488e-05
-8.317133430912761573e-05
-8.284603330469179449e-05
-8.252073230025598681e-05
-8.220356382093106347e-05
-8.187826281649524223e-05
-8.156109433717031890e-05
-8.123579333273449766e-05
-8.091862485340958787e-05
-8.060145637408466454e-05
-8.028428789475974120e-05
-7.997525194054571577e-05
-7.965808346122079243e-05
-7.934904750700676700e-05
-7.903187902768184366e-05
-7.872284307346780468e-05
-7.841380711925379280e-05
-7.811290369015066527e-05
-7.780386773593662628e-05
-7.750296430683349875e-05
-7.719392835261947331e-05
-7.689302492351633223e-05
-7.659212149441320470e-05
-7.629121806531007717e-05
-7.599031463620694964e-05
-7.569754373221470646e-05
-7.539664030311157893e-05
-7.510386939911934930e-05
-7.481109849512711967e-05
-7.451832759113487649e-05
-7.422555668714263331e-05
-7.393278578315040368e-05
-7.364001487915817405e-05
-7.335537650027682877e-05
-7.306260559628458559e-05
-7.277796721740325387e-05
-7.249332883852190859e-05
-7.220869045964056331e-05
-7.192405208075923159e-05
-7.164754622698878421e-05
-7.136290784810745249e-05
-7.108640199433700511e-05
-7.080989614056655774e-05
-7.052525776168521246e-05
-7.024875190791476508e-05
-6.998037857925522916e-05
-6.970387272548478179e-05
-6.942736687171433441e-05
-6.915899354305478494e-05
-6.888248768928433756e-05
-6.861411436062478809e-05
-6.834574103196523862e-05
-6.807736770330568914e-05
-6.780899437464613967e-05
-6.754875357109748810e-05
-6.728038024243793863e-05
-6.702013943888928706e-05
-6.675176611022973759e-05
-6.649152530668108602e-05
-6.623128450313243445e-05
-6.597104369958376932e-05
-6.571893542114601566e-05
-6.545869461759736409e-05
-6.519845381404871252e-05
-6.494634553561094530e-05
-6.469423725717319163e-05
-6.443399645362454006e-05
-6.418188817518677284e-05
-6.392977989674901917e-05
-6.368580414342214985e-05
-6.343369586498439619e-05
-6.318158758654662897e-05
-6.293761183321977320e-05
-6.269363607989290388e-05
-6.244152780145515022e-05
-6.219755204812829445e-05
-6.195357629480143869e-05
-6.170960054147456937e-05
-6.147375731325859796e-05
-6.122978155993174219e-05
-6.099393833171576400e-05
-6.074996257838890146e-05
-6.051411935017293682e-05
-6.027827612195697218e-05
-6.004243289374100077e-05
-5.980658966552503613e-05
-5.957074643730907149e-05
-5.933490320909310008e-05
-5.910719250598802656e-05
-5.887134927777206193e-05
-5.864363857466698164e-05
-5.841592787156190813e-05
-5.818008464334594349e-05
-5.795237394024087675e-05
-5.772466323713580324e-05
-5.750508505914162763e-05
-5.727737435603655412e-05
-5.704966365293148061e-05
-5.683008547493730500e-05
-5.660237477183223149e-05
-5.638279659383805588e-05
-5.616321841584388027e-05
-5.594364023784969788e-05
-5.572406205985552227e-05
-5.550448388186135344e-05
-5.528490570386716428e-05
-5.507346005098388657e-05
-5.485388187298971096e-05
-5.464243622010643326e-05
-5.442285804211225765e-05
-5.421141238922897316e-05
-5.399996673634569546e-05
-5.378852108346241097e-05
-5.357707543057912649e-05
-5.336562977769584878e-05
-5.316231664992346898e-05
-5.295087099704018450e-05
-5.273942534415690001e-05
-5.253611221638451343e-05
-5.233279908861213363e-05
-5.212135343572884915e-05
-5.191804030795645579e-05
-5.171472718018407599e-05
-5.151141405241168941e-05
-5.131623344975020073e-05
-5.111292032197780737e-05
-5.090960719420542757e-05
-5.071442659154393889e-05
-5.051111346377155231e-05
-5.031593286111006363e-05
-5.012075225844857496e-05
-4.991743913067618160e-05
-4.972225852801469292e-05
-4.952707792535320424e-05
-4.934002984780260669e-05
-4.914484924514111802e-05
-4.894966864247962256e-05
-4.875448803981813388e-05
-4.856743996226753633e-05
-4.838039188471694556e-05
-4.818521128205545010e-05
-4.799816320450485933e-05
-4.781111512695426178e-05
-4.762406704940367100e-05
-4.743701897185307345e-05
-4.724997089430248268e-05
-4.706292281675188513e-05
-4.688400726431218548e-05
-4.669695918676159470e-05
-4.651804363432189505e-05
-4.633099555677129750e-05
-4.615208000433159108e-05
-4.597316445189189821e-05
-4.578611637434130065e-05
-4.560720082190160101e-05
-4.542828526946190136e-05
-4.524936971702220849e-05
-4.507858668969339996e-05
-4.489967113725370032e-05
-4.472075558481400067e-05
-4.454997255748519892e-05
-4.437105700504549250e-05
-4.420027397771669075e-05
-4.402949095038788900e-05
-4.385057539794818936e-05
-4.367979237061938083e-05
-4.350900934329057909e-05
-4.333822631596177734e-05
-4.316744328863296882e-05
-4.299666026130416707e-05
-4.283400975908626323e-05
-4.266322673175745471e-05
-4.250057622953954409e-05
-4.232979320221074234e-05
-4.216714269999283172e-05
-4.199635967266402998e-05
-4.183370917044611936e-05
-4.167105866822820874e-05
-4.150840816601030490e-05
-4.134575766379239428e-05
-4.118310716157449043e-05
-4.102045665935657304e-05
-4.085780615713866920e-05
-4.070328818003164970e-05
-4.054063767781374586e-05
-4.037798717559583524e-05
-4.022346919848882252e-05
-4.006895122138180981e-05
-3.990630071916390596e-05
-3.975178274205688647e-05
-3.959726476494988053e-05
-3.944274678784286104e-05
-3.928822881073584832e-05
-3.913371083362883560e-05
-3.897919285652182289e-05
-3.882467487941481017e-05
-3.867828942741868858e-05
-3.852377145031168264e-05
-3.836925347320466315e-05
-3.822286802120854156e-05
-3.806835004410153561e-05
-3.792196459210541402e-05
-3.777557914010929243e-05
-3.762919368811318440e-05
-3.747467571100616490e-05
-3.732829025901005009e-05
-3.718190480701393527e-05
-3.704365188012871159e-05
-3.689726642813259000e-05
-3.675088097613647518e-05
-3.660449552414035359e-05
-3.646624259725512990e-05
-3.631985714525901509e-05
-3.617347169326290028e-05
-3.603521876637767659e-05
-3.589696583949245290e-05
-3.575058038749633131e-05
-3.561232746061111440e-05
-3.547407453372589071e-05
-3.533582160684066702e-05
-3.519756867995544334e-05
-3.505931575307021965e-05
-3.492106282618499596e-05
-3.478280989929977905e-05
-3.464455697241455536e-05
-3.451443657064022958e-05
-3.437618364375500589e-05
-3.423793071686978220e-05
-3.410781031509545642e-05
-3.397768991332113063e-05
-3.383943698643590694e-05
-3.370931658466158116e-05
-3.357919618288725537e-05
-3.344094325600203169e-05
-3.331082285422770590e-05
-3.318070245245338012e-05
-3.305058205067904755e-05
-3.292046164890472177e-05
-3.279034124713039598e-05
-3.266835337046696810e-05
-3.253823296869263554e-05
-3.240811256691830976e-05
-3.228612469025488187e-05
-3.215600428848054931e-05
-3.203401641181712143e-05
-3.190389601004279564e-05
-3.178190813337936099e-05
-3.165178773160503520e-05
-3.152979985494160732e-05
-3.140781197827817266e-05
-3.128582410161474478e-05
-3.116383622495131012e-05
-3.104184834828788224e-05
-3.091986047162444758e-05
-3.079787259496101292e-05
-3.067588471829757826e-05
-3.055389684163415038e-05
-3.044004149008161362e-05
-3.031805361341818574e-05
-3.019606573675475108e-05
-3.008221038520221771e-05
-2.996022250853878305e-05
-2.984636715698624630e-05
-2.972437928032281842e-05
-2.961052392877027827e-05
-2.949666857721774152e-05
-2.938281322566520815e-05
-2.926082534900177349e-05
-2.914696999744924351e-05
-2.903311464589670337e-05
-2.891925929434416661e-05
-2.880540394279163663e-05
-2.869154859123909649e-05
-2.858582576479745763e-05
-2.847197041324491749e-05
-2.835811506169238751e-05
-2.824425971013984736e-05
-2.813853688369820851e-05
-2.802468153214566837e-05
-2.791895870570402951e-05
-2.780510335415149615e-05
-2.769938052770985390e-05
-2.759365770126821505e-05
-2.747980234971567491e-05
-2.737407952327403605e-05
-2.726835669683239381e-05
-2.716263387039075496e-05
-2.705691104394911272e-05
-2.695118821750747048e-05
-2.684546539106583162e-05
-2.673974256462418938e-05
-2.663401973818255392e-05
-2.652829691174091168e-05
-2.642257408529927282e-05
-2.631685125885763058e-05
-2.621926095752688624e-05
-2.611353813108524400e-05
-2.601594782975449627e-05
-2.591022500331286081e-05
-2.581263470198210969e-05
-2.570691187554047084e-05
-2.560932157420972650e-05
-2.550359874776808426e-05
-2.540600844643733992e-05
-2.530841814510659558e-05
-2.521082784377585124e-05
-2.510510501733420900e-05
-2.500751471600346466e-05
-2.490992441467272032e-05
-2.481233411334197599e-05
-2.471474381201122826e-05
-2.461715351068048392e-05
-2.452769573446063410e-05
-2.443010543312988976e-05
-2.433251513179914542e-05
-2.423492483046839769e-05
-2.414546705424854787e-05
-2.404787675291780353e-05
-2.395028645158705919e-05
-2.386082867536720937e-05
-2.376323837403646503e-05
-2.367378059781661181e-05
-2.357619029648586748e-05
-2.348673252026601765e-05
-2.339727474404616783e-05
-2.329968444271542010e-05
-2.321022666649557366e-05
-2.312076889027572384e-05
-2.303131111405587402e-05
-2.294185333783602419e-05
-2.285239556161617098e-05
-2.276293778539632454e-05
-2.267348000917647472e-05
-2.258402223295662489e-05
-2.249456445673677507e-05
-2.240510668051692525e-05
-2.231564890429707542e-05
-2.223432365318812011e-05
-2.214486587696827029e-05
-2.205540810074842046e-05
-2.197408284963946515e-05
-2.188462507341961872e-05
-2.179516729719976889e-05
-2.171384204609081020e-05
-2.162438426987096376e-05
-2.154305901876200845e-05
-2.146173376765305314e-05
-2.137227599143320332e-05
-2.129095074032425139e-05
-2.120962548921529608e-05
-2.112830023810634077e-05
-2.103884246188649434e-05
-2.095751721077753564e-05
-2.087619195966858372e-05
-2.079486670855962841e-05
-2.071354145745067310e-05
-2.063221620634171779e-05
-2.055089095523276587e-05
-2.046956570412381056e-05
-2.038824045301485525e-05
-2.030691520190590333e-05
-2.023372247590784253e-05
-2.015239722479889061e-05
-2.007107197368993530e-05
-1.999787924769187451e-05
-1.991655399658292258e-05
-1.983522874547396727e-05
-1.976203601947590987e-05
-1.968071076836695117e-05
-1.960751804236889715e-05
-1.952619279125993845e-05
-1.945300006526188443e-05
-1.937980733926382364e-05
-1.929848208815486833e-05
-1.922528936215681092e-05
-1.915209663615875013e-05
-1.907077138504979820e-05
-1.899757865905173741e-05
-1.892438593305367661e-05
-1.885119320705561921e-05
-1.877800048105756180e-05
-1.870480775505950101e-05
-1.863161502906144360e-05
-1.855842230306338280e-05
-1.848522957706532540e-05
-1.841203685106726460e-05
-1.833884412506920719e-05
-1.826565139907114640e-05
-1.819245867307308899e-05
-1.812739847218592271e-05
-1.805420574618786869e-05
-1.798101302018980790e-05
-1.791595281930264500e-05
-1.784276009330458421e-05
-1.776956736730652680e-05
-1.770450716641936391e-05
-1.763131444042130311e-05
-1.756625423953414022e-05
-1.749306151353607943e-05
-1.742800131264891653e-05
-1.735480858665085913e-05
-1.728974838576369623e-05
-1.722468818487653334e-05
-1.715149545887847255e-05
-1.708643525799130965e-05
-1.702137505710414676e-05
-1.695631485621698048e-05
-1.689125465532981759e-05
-1.681806192933176018e-05
-1.675300172844459729e-05
-1.668794152755743440e-05
-1.662288132667027150e-05
-1.655782112578310861e-05
-1.649276092489594233e-05
-1.642770072400877944e-05
-1.636264052312161655e-05
-1.629758032223445365e-05
-1.624065264645818528e-05
-1.617559244557102238e-05
-1.611053224468385610e-05
-1.604547204379669321e-05
-1.598041184290953032e-05
-1.592348416713326194e-05
-1.585842396624609905e-05
-1.579336376535893615e-05
-1.573643608958266778e-05
-1.567137588869550488e-05
-1.561444821291923651e-05
-1.554938801203207361e-05
-1.549246033625580524e-05
-1.542740013536864234e-05
-1.537047245959237058e-05
-1.530541225870520768e-05
-1.524848458292894100e-05
-1.519155690715267432e-05
-1.512649670626551142e-05
-1.506956903048924305e-05
-1.501264135471297297e-05
-1.495571367893670460e-05
-1.489065347804954170e-05
-1.483372580227327502e-05
-1.477679812649700664e-05
-1.471987045072073826e-05
-1.466294277494446819e-05
-1.460601509916820320e-05
-1.454908742339193313e-05
-1.449215974761566475e-05
-1.443523207183939807e-05
-1.437830439606312969e-05
-1.432137672028686131e-05
-1.426444904451059463e-05
-1.420752136873432625e-05
-1.415059369295805787e-05
-1.409366601718178780e-05
-1.404487086651641563e-05
-1.398794319074015064e-05
-1.393101551496388057e-05
-1.387408783918761219e-05
-1.382529268852224002e-05
-1.376836501274597164e-05
-1.371143733696970496e-05
-1.366264218630433110e-05
-1.360571451052806441e-05
-1.355691935986269224e-05
-1.349999168408642386e-05
-1.345119653342105169e-05
-1.339426885764478162e-05
-1.334547370697940945e-05
-1.328854603120314108e-05
-1.323975088053776891e-05
-1.318282320476150053e-05
-1.313402805409612836e-05
-1.308523290343075619e-05
-1.302830522765448612e-05
-1.297951007698911395e-05
-1.293071492632374178e-05
-1.288191977565836961e-05
-1.282499209988210123e-05
-1.277619694921672906e-05
-1.272740179855135689e-05
-1.267860664788598472e-05
-1.262981149722061086e-05
-1.258101634655523869e-05
-1.253222119588986652e-05
-1.248342604522449435e-05
-1.243463089455912218e-05
-1.238583574389374832e-05
-1.233704059322837615e-05
-1.228824544256300229e-05
-1.223945029189763012e-05
-1.219065514123225795e-05
-1.214185999056688408e-05
-1.209306483990151191e-05
-1.204426968923613974e-05
-1.200360706368166209e-05
-1.195481191301628992e-05
-1.190601676235091775e-05
-1.185722161168554389e-05
-1.181655898613106793e-05
-1.176776383546569576e-05
-1.171896868480032189e-05
-1.167830605924584593e-05
-1.162951090858047376e-05
-1.158071575791509990e-05
-1.154005313236062225e-05
-1.149125798169525008e-05
-1.145059535614077412e-05
-1.140180020547540025e-05
-1.136113757992092260e-05
-1.131234242925555212e-05
-1.127167980370107277e-05
-1.122288465303570060e-05
-1.118222202748122464e-05
-1.114155940192674529e-05
-1.109276425126137312e-05
-1.105210162570689716e-05
-1.100330647504152330e-05
-1.096264384948704734e-05
-1.092198122393256968e-05
-1.088131859837809372e-05
-1.083252344771271986e-05
-1.079186082215824221e-05
-1.075119819660376624e-05
-1.071053557104928859e-05
-1.066987294549481093e-05
-1.062107779482943877e-05
-1.058041516927496280e-05
-1.053975254372048346e-05
-1.049908991816600749e-05
-1.045842729261152984e-05
-1.041776466705705218e-05
-1.037710204150257622e-05
-1.033643941594809857e-05
-1.029577679039362261e-05
-1.025511416483914326e-05
-1.021445153928466730e-05
-1.017378891373018964e-05
-1.013312628817571199e-05
-1.009246366262123603e-05
-1.005993356217765458e-05
-1.001927093662317693e-05
-9.978608311068699272e-06
-9.937945685514221617e-06
-9.897283059959745657e-06
-9.864752959516164210e-06
-9.824090333961684861e-06
-9.783427708407208901e-06
-9.742765082852732940e-06
-9.710234982409149800e-06
-9.669572356854672145e-06
-9.628909731300196184e-06
-9.596379630856614738e-06
-9.555717005302135389e-06
-9.515054379747659428e-06
-9.482524279304077982e-06
-9.441861653749600327e-06
-9.409331553306018881e-06
-9.368668927751541226e-06
-9.336138827307959779e-06
-9.295476201753483819e-06
-9.262946101309900678e-06
-9.222283475755423024e-06
-9.189753375311841577e-06
-9.149090749757365616e-06
-9.116560649313782476e-06
-9.084030548870201030e-06
-9.043367923315725069e-06
-9.010837822872143623e-06
-8.970175197317664274e-06
-8.937645096874082828e-06
-8.905114996430501381e-06
-8.872584895986919935e-06
-8.831922270432442280e-06
-8.799392169988860834e-06
-8.766862069545279388e-06
-8.734331969101697942e-06
-8.693669343547220287e-06
-8.661139243103638840e-06
-8.628609142660057394e-06
-8.596079042216475948e-06
-8.563548941772894502e-06
-8.531018841329311361e-06
-8.490356215774835400e-06
-8.457826115331253954e-06
-8.425296014887672508e-06
-8.392765914444089368e-06
-8.360235814000507921e-06
-8.327705713556926475e-06
-8.295175613113345029e-06
-8.262645512669761889e-06
-8.230115412226180442e-06
-8.197585311782598996e-06
-8.165055211339017550e-06
-8.132525110895436104e-06
-8.099995010451852963e-06
-8.067464910008271517e-06
-8.043067334675586279e-06
-8.010537234232004833e-06
-7.978007133788421693e-06
-7.945477033344840246e-06
-7.912946932901258800e-06
-7.880416832457677354e-06
-7.856019257124990422e-06
-7.823489156681408976e-06
-7.790959056237827530e-06
-7.758428955794246083e-06
-7.734031380461559152e-06
-7.701501280017977705e-06
-7.668971179574394565e-06
-7.636441079130813119e-06
-7.612043503798127881e-06
-7.579513403354546435e-06
-7.546983302910963295e-06
-7.522585727578277210e-06
-7.490055627134695764e-06
-7.465658051802009679e-06
-7.433127951358428233e-06
-7.400597850914845939e-06
-7.376200275582159855e-06
-7.343670175138578408e-06
-7.319272599805892324e-06
-7.286742499362310878e-06
-7.262344924029623099e-06
-7.229814823586041652e-06
-7.205417248253355568e-06
-7.172887147809774122e-06
-7.148489572477088037e-06
-7.115959472033505744e-06
-7.091561896700819659e-06
-7.059031796257238213e-06
-7.034634220924552128e-06
-7.010236645591866043e-06
-6.977706545148282903e-06
-6.953308969815596818e-06
-6.928911394482910733e-06
-6.896381294039329287e-06
-6.871983718706643203e-06
-6.847586143373957118e-06
-6.815056042930374825e-06
-6.790658467597688740e-06
-6.766260892265002655e-06
-6.733730791821421209e-06
-6.709333216488735124e-06
-6.684935641156047345e-06
-6.660538065823361261e-06
-6.636140490490675176e-06
-6.603610390047093730e-06
-6.579212814714407645e-06
-6.554815239381721560e-06
-6.530417664049033782e-06
-6.506020088716347697e-06
-6.481622513383661612e-06
-6.449092412940080166e-06
-6.424694837607394928e-06
-6.400297262274707150e-06
-6.375899686942021065e-06
-6.351502111609334980e-06
-6.327104536276648896e-06
-6.302706960943962811e-06
-6.278309385611276726e-06
-6.253911810278588947e-06
-6.229514234945902863e-06
-6.205116659613216778e-06
-6.180719084280530693e-06
-6.156321508947844609e-06
-6.131923933615158524e-06
-6.107526358282472439e-06
-6.083128782949786355e-06
-6.058731207617099423e-06
-6.034333632284413338e-06
-6.009936056951727253e-06
-5.985538481619040322e-06
-5.961140906286354237e-06
-5.944875856064563514e-06
-5.920478280731876582e-06
-5.896080705399190497e-06
-5.871683130066504413e-06
-5.847285554733818328e-06
-5.822887979401132243e-06
-5.806622929179341520e-06
-5.782225353846654588e-06
-5.757827778513968504e-06
-5.733430203181282419e-06
-5.709032627848595487e-06
-5.692767577626804764e-06
-5.668370002294118680e-06
-5.643972426961431748e-06
-5.627707376739641025e-06
-5.603309801406954940e-06
-5.578912226074268855e-06
-5.554514650741581924e-06
-5.538249600519791200e-06
-5.513852025187105116e-06
-5.489454449854419031e-06
-5.473189399632628308e-06
-5.448791824299942223e-06
-5.432526774078151500e-06
-5.408129198745464568e-06
-5.383731623412778484e-06
-5.367466573190987761e-06
-5.343068997858300829e-06
-5.326803947636510106e-06
-5.302406372303824021e-06
-5.278008796971137089e-06
-5.261743746749346366e-06
-5.237346171416660281e-06
-5.221081121194869558e-06
-5.196683545862183474e-06
-5.180418495640392751e-06
-5.156020920307706666e-06
-5.139755870085915096e-06
-5.115358294753229011e-06
-5.099093244531438288e-06
-5.074695669198752203e-06
-5.058430618976960633e-06
-5.042165568755169910e-06
-5.017767993422483825e-06
-5.001502943200693102e-06
-4.977105367868006170e-06
-4.960840317646215447e-06
-4.936442742313529362e-06
-4.920177692091737792e-06
-4.903912641869947069e-06
-4.879515066537261832e-06
-4.863250016315471108e-06
-4.846984966093679538e-06
-4.822587390760993454e-06
-4.806322340539202730e-06
-4.790057290317412007e-06
-4.765659714984725076e-06
-4.749394664762934352e-06
-4.733129614541143629e-06
-4.716864564319352906e-06
-4.692466988986665974e-06
-4.676201938764875251e-06
-4.659936888543084528e-06
-4.635539313210397596e-06
-4.619274262988606873e-06
-4.603009212766816150e-06
-4.586744162545025427e-06
-4.570479112323234704e-06
-4.546081536990548619e-06
-4.529816486768757896e-06
-4.513551436546967173e-06
-4.497286386325176450e-06
-4.481021336103384880e-06
-4.464756285881594157e-06
-4.440358710548908072e-06
-4.424093660327116502e-06
-4.407828610105325779e-06
-4.391563559883535055e-06
-4.375298509661744332e-06
-4.359033459439953609e-06
-4.342768409218162039e-06
-4.326503358996371316e-06
-4.302105783663685231e-06
-4.285840733441894508e-06
-4.269575683220103785e-06
-4.253310632998313062e-06
-4.237045582776522339e-06
-4.220780532554731616e-06
-4.204515482332940045e-06
-4.188250432111149322e-06
-4.171985381889358599e-06
-4.155720331667567876e-06
-4.139455281445777153e-06
-4.123190231223985583e-06
-4.106925181002194860e-06
-4.090660130780404136e-06
-4.074395080558613413e-06
-4.058130030336821843e-06
-4.041864980115031120e-06
-4.025599929893240397e-06
-4.009334879671449674e-06
-3.993069829449658104e-06
-3.976804779227867380e-06
-3.968672254116972019e-06
-3.952407203895181296e-06
-3.936142153673390573e-06
-3.919877103451599850e-06
-3.903612053229809126e-06
-3.887347003008018403e-06
-3.871081952786227680e-06
-3.854816902564436957e-06
-3.838551852342645387e-06
-3.830419327231750025e-06
-3.814154277009959302e-06
-3.797889226788168579e-06
-3.781624176566377856e-06
-3.765359126344586286e-06
-3.749094076122795563e-06
-3.740961551011900201e-06
-3.724696500790109478e-06
-3.708431450568318755e-06
-3.692166400346527608e-06
-3.684033875235632247e-06
-3.667768825013841523e-06
-3.651503774792050800e-06
-3.635238724570260077e-06
-3.618973674348468507e-06
-3.610841149237573145e-06
-3.594576099015782422e-06
-3.578311048793991699e-06
-3.570178523683096338e-06
-3.553913473461305191e-06
-3.537648423239514468e-06
-3.521383373017723745e-06
-3.513250847906828383e-06
-3.496985797685037660e-06
-3.480720747463246090e-06
-3.472588222352350728e-06
-3.456323172130560005e-06
-3.440058121908769282e-06
-3.431925596797873920e-06
-3.415660546576082774e-06
-3.399395496354292051e-06
-3.391262971243396689e-06
-3.374997921021605966e-06
-3.358732870799815243e-06
-3.350600345688919881e-06
-3.334335295467128311e-06
-3.326202770356232950e-06
-3.309937720134442226e-06
-3.293672669912651503e-06
-3.285540144801756142e-06
-3.269275094579964572e-06
-3.261142569469069210e-06
-3.244877519247278487e-06
-3.236744994136383125e-06
-3.220479943914592402e-06
-3.204214893692802103e-06
-3.196082368581905894e-06
-3.179817318360115171e-06
-3.171684793249219809e-06
-3.155419743027429086e-06
-3.147287217916533725e-06
-3.131022167694743002e-06
-3.122889642583846793e-06
-3.106624592362056070e-06
-3.098492067251160708e-06
-3.082227017029369985e-06
-3.074094491918474624e-06
-3.057829441696683900e-06
-3.049696916585788539e-06
-3.033431866363997392e-06
-3.025299341253102031e-06
-3.009034291031311307e-06
-3.000901765920415522e-06
-2.984636715698624799e-06
-2.976504190587729438e-06
-2.968371665476834076e-06
-2.952106615255042929e-06
-2.943974090144147568e-06
-2.927709039922356845e-06
-2.919576514811461483e-06
-2.911443989700566122e-06
-2.895178939478774975e-06
-2.887046414367879613e-06
-2.870781364146088890e-06
-2.862648839035193529e-06
-2.854516313924297744e-06
-2.838251263702507021e-06
-2.830118738591611659e-06
-2.813853688369820512e-06
-2.805721163258925151e-06
-2.797588638148029789e-06
-2.781323587926238643e-06
-2.773191062815343281e-06
-2.765058537704447919e-06
-2.748793487482657196e-06
-2.740660962371761835e-06
-2.732528437260866473e-06
-2.716263387039075750e-06
-2.708130861928179965e-06
-2.699998336817284603e-06
-2.691865811706389242e-06
-2.675600761484598095e-06
-2.667468236373702734e-06
-2.659335711262807372e-06
-2.643070661041016225e-06
-2.634938135930120864e-06
-2.626805610819225502e-06
-2.618673085708330141e-06
-2.602408035486539418e-06
-2.594275510375644056e-06
-2.586142985264748694e-06
-2.578010460153853333e-06
-2.561745409932062186e-06
-2.553612884821166825e-06
-2.545480359710271463e-06
-2.537347834599376102e-06
-2.521082784377584955e-06
-2.512950259266689593e-06
-2.504817734155794232e-06
-2.496685209044898447e-06
-2.488552683934003085e-06
-2.472287633712212362e-06
-2.464155108601316577e-06
-2.456022583490421215e-06
-2.447890058379525854e-06
-2.439757533268630916e-06
-2.423492483046839769e-06
-2.415359957935944408e-06
-2.407227432825049046e-06
-2.399094907714153684e-06
-2.390962382603257899e-06
-2.382829857492362538e-06
-2.366564807270571815e-06
-2.358432282159676453e-06
-2.350299757048780668e-06
-2.342167231937885306e-06
-2.334034706826989945e-06
-2.325902181716094583e-06
-2.317769656605198798e-06
-2.309637131494303437e-06
-2.293372081272512714e-06
-2.285239556161617352e-06
-2.277107031050721990e-06
-2.268974505939826629e-06
-2.260841980828931267e-06
-2.252709455718035906e-06
-2.244576930607140121e-06
-2.236444405496244759e-06
-2.228311880385349397e-06
-2.220179355274454036e-06
-2.212046830163558251e-06
-2.203914305052662889e-06
-2.187649254830872166e-06
-2.179516729719976805e-06
-2.171384204609081020e-06
-2.163251679498185658e-06
-2.155119154387290296e-06
-2.146986629276394935e-06
-2.138854104165499573e-06
-2.130721579054604212e-06
-2.122589053943708850e-06
-2.114456528832813489e-06
-2.106324003721918127e-06
-2.098191478611022342e-06
-2.090058953500126980e-06
-2.081926428389231619e-06
-2.073793903278336257e-06
-2.065661378167440472e-06
-2.057528853056545111e-06
-2.049396327945649749e-06
-2.041263802834754387e-06
-2.033131277723859026e-06
-2.024998752612963241e-06
-2.016866227502067879e-06
-2.008733702391172518e-06
-2.000601177280277156e-06
-1.992468652169381371e-06
-1.984336127058486009e-06
-1.976203601947590648e-06
-1.968071076836695286e-06
-1.959938551725799925e-06
-1.951806026614904563e-06
-1.951806026614904563e-06
-1.943673501504009202e-06
-1.935540976393113840e-06
-1.927408451282218479e-06
-1.919275926171322693e-06
-1.911143401060427332e-06
-1.903010875949531970e-06
-1.894878350838636609e-06
-1.886745825727740824e-06
-1.878613300616845462e-06
-1.870480775505950101e-06
-1.862348250395054739e-06
-1.854215725284159377e-06
-1.854215725284159377e-06
-1.846083200173263804e-06
-1.837950675062368443e-06
-1.829818149951473081e-06
-1.821685624840577719e-06
-1.813553099729681934e-06
-1.805420574618786573e-06
-1.797288049507891211e-06
-1.797288049507891211e-06
-1.789155524396995850e-06
-1.781022999286100488e-06
-1.772890474175204915e-06
-1.764757949064309553e-06
-1.756625423953414192e-06
-1.748492898842518830e-06
-1.748492898842518830e-06
-1.740360373731623045e-06
-1.732227848620727683e-06
-1.724095323509832322e-06
-1.715962798398936960e-06
-1.707830273288041387e-06
-1.707830273288041387e-06
-1.699697748177146025e-06
-1.691565223066250664e-06
-1.683432697955355302e-06
-1.675300172844459941e-06
-1.675300172844459941e-06
-1.667167647733564156e-06
-1.659035122622668794e-06
-1.650902597511773432e-06
-1.642770072400878071e-06
-1.642770072400878071e-06
-1.634637547289982286e-06
-1.626505022179086924e-06
-1.618372497068191563e-06
-1.610239971957296201e-06
-1.610239971957296201e-06
-1.602107446846401051e-06
-1.593974921735505266e-06
-1.585842396624609905e-06
-1.585842396624609905e-06
-1.577709871513714543e-06
-1.569577346402819182e-06
-1.561444821291923396e-06
-1.553312296181028035e-06
-1.553312296181028035e-06
-1.545179771070132673e-06
-1.537047245959237312e-06
-1.528914720848341950e-06
-1.528914720848341950e-06
-1.520782195737446589e-06
-1.512649670626551015e-06
-1.512649670626551015e-06
-1.504517145515655654e-06
-1.496384620404760080e-06
-1.488252095293864719e-06
-1.488252095293864719e-06
-1.480119570182969146e-06
-1.471987045072073784e-06
-1.471987045072073784e-06
-1.463854519961178422e-06
-1.455721994850283061e-06
-1.447589469739387488e-06
-1.447589469739387488e-06
-1.439456944628492126e-06
-1.431324419517596764e-06
-1.431324419517596764e-06
-1.423191894406701191e-06
-1.415059369295805829e-06
-1.415059369295805829e-06
-1.406926844184910256e-06
-1.398794319074014895e-06
-1.398794319074014895e-06
-1.390661793963119321e-06
-1.382529268852223960e-06
-1.382529268852223960e-06
-1.374396743741328598e-06
-1.366264218630433237e-06
-1.366264218630433237e-06
-1.358131693519537875e-06
-1.349999168408642302e-06
-1.349999168408642302e-06
-1.341866643297746940e-06
-1.333734118186851367e-06
-1.333734118186851367e-06
-1.325601593075956005e-06
-1.317469067965060432e-06
-1.317469067965060432e-06
-1.309336542854165070e-06
-1.301204017743269709e-06
-1.301204017743269709e-06
-1.293071492632374347e-06
-1.293071492632374347e-06
-1.284938967521478774e-06
-1.276806442410583412e-06
-1.276806442410583412e-06
-1.268673917299688051e-06
-1.268673917299688051e-06
-1.260541392188792477e-06
-1.252408867077897116e-06
-1.252408867077897116e-06
-1.244276341967001543e-06
-1.236143816856106181e-06
-1.236143816856106181e-06
-1.228011291745210608e-06
-1.228011291745210608e-06
-1.219878766634315458e-06
-1.219878766634315458e-06
-1.211746241523419885e-06
-1.203613716412524523e-06
-1.203613716412524523e-06
-1.195481191301628950e-06
-1.195481191301628950e-06
-1.187348666190733588e-06
-1.179216141079838227e-06
-1.179216141079838227e-06
-1.171083615968942653e-06
-1.171083615968942653e-06
-1.162951090858047292e-06
-1.162951090858047292e-06
-1.154818565747151718e-06
-1.154818565747151718e-06
-1.146686040636256357e-06
-1.138553515525360995e-06
-1.138553515525360995e-06
-1.130420990414465634e-06
-1.130420990414465634e-06
-1.122288465303570060e-06
-1.122288465303570060e-06
-1.114155940192674699e-06
-1.114155940192674699e-06
-1.106023415081779125e-06
-1.106023415081779125e-06
-1.097890889970883764e-06
-1.089758364859988402e-06
-1.089758364859988402e-06
-1.081625839749092829e-06
-1.081625839749092829e-06
-1.073493314638197467e-06
-1.073493314638197467e-06
-1.065360789527302106e-06
-1.065360789527302106e-06
-1.057228264416406744e-06
-1.057228264416406744e-06
-1.049095739305511171e-06
-1.049095739305511171e-06
-1.040963214194615809e-06
-1.040963214194615809e-06
-1.032830689083720236e-06
-1.032830689083720236e-06
-1.024698163972824875e-06
-1.024698163972824875e-06
-1.016565638861929513e-06
-1.016565638861929513e-06
-1.008433113751033940e-06
-1.008433113751033940e-06
-1.000300588640138578e-06
-1.000300588640138578e-06
-9.921680635292430047e-07
-9.921680635292430047e-07
-9.840355384183476432e-07
-9.840355384183476432e-07
-9.759030133074522816e-07
-9.759030133074522816e-07
-9.759030133074522816e-07
-9.677704881965569200e-07
-9.677704881965569200e-07
-9.596379630856613467e-07
-9.596379630856613467e-07
-9.515054379747659851e-07
-9.515054379747659851e-07
-9.433729128638704118e-07
-9.433729128638704118e-07
-9.352403877529750503e-07
-9.352403877529750503e-07
-9.271078626420796887e-07
-9.271078626420796887e-07
-9.271078626420796887e-07
-9.189753375311842213e-07
-9.189753375311842213e-07
-9.108428124202888597e-07
-9.108428124202888597e-07
-9.027102873093932864e-07
-9.027102873093932864e-07
-8.945777621984979248e-07
-8.945777621984979248e-07
-8.945777621984979248e-07
-8.864452370876024574e-07
-8.864452370876024574e-07
-8.783127119767070958e-07
-8.783127119767070958e-07
-8.783127119767070958e-07
-8.701801868658115225e-07
-8.701801868658115225e-07
-8.620476617549161609e-07
-8.620476617549161609e-07
-8.539151366440206935e-07
-8.539151366440206935e-07
-8.539151366440206935e-07
-8.457826115331253319e-07
-8.457826115331253319e-07
-8.376500864222299703e-07
-8.376500864222299703e-07
-8.376500864222299703e-07
-8.295175613113343970e-07
-8.295175613113343970e-07
-8.213850362004390354e-07
-8.213850362004390354e-07
-8.213850362004390354e-07
-8.132525110895434621e-07
-8.132525110895434621e-07
-8.051199859786481006e-07
-8.051199859786481006e-07
-8.051199859786481006e-07
-7.969874608677526331e-07
-7.969874608677526331e-07
-7.888549357568572715e-07
-7.888549357568572715e-07
-7.888549357568572715e-07
-7.807224106459616982e-07
-7.807224106459616982e-07
-7.807224106459616982e-07
-7.725898855350663367e-07
-7.725898855350663367e-07
-7.644573604241709751e-07
-7.644573604241709751e-07
-7.644573604241709751e-07
-7.563248353132755077e-07
-7.563248353132755077e-07
-7.563248353132755077e-07
-7.481923102023800402e-07
-7.481923102023800402e-07
-7.481923102023800402e-07
-7.400597850914845728e-07
-7.400597850914845728e-07
-7.319272599805892112e-07
-7.319272599805892112e-07
-7.319272599805892112e-07
-7.237947348696937438e-07
-7.237947348696937438e-07
-7.237947348696937438e-07
-7.156622097587983822e-07
-7.156622097587983822e-07
-7.156622097587983822e-07
-7.075296846479029147e-07
-7.075296846479029147e-07
-7.075296846479029147e-07
-6.993971595370074473e-07
-6.993971595370074473e-07
-6.993971595370074473e-07
-6.912646344261119799e-07
-6.912646344261119799e-07
-6.912646344261119799e-07
-6.831321093152166183e-07
-6.831321093152166183e-07
-6.831321093152166183e-07
-6.749995842043211509e-07
-6.749995842043211509e-07
-6.749995842043211509e-07
-6.668670590934256834e-07
-6.668670590934256834e-07
-6.668670590934256834e-07
-6.587345339825302160e-07
-6.587345339825302160e-07
-6.587345339825302160e-07
-6.506020088716348544e-07
-6.506020088716348544e-07
-6.506020088716348544e-07
-6.424694837607393870e-07
-6.424694837607393870e-07
-6.424694837607393870e-07
-6.424694837607393870e-07
-6.343369586498440254e-07
-6.343369586498440254e-07
-6.343369586498440254e-07
-6.262044335389485579e-07
-6.262044335389485579e-07
-6.262044335389485579e-07
-6.180719084280530905e-07
-6.180719084280530905e-07
-6.180719084280530905e-07
-6.099393833171577289e-07
-6.099393833171577289e-07
-6.099393833171577289e-07
-6.099393833171577289e-07
-6.018068582062622615e-07
-6.018068582062622615e-07
-6.018068582062622615e-07
-5.936743330953667941e-07
-5.936743330953667941e-07
-5.936743330953667941e-07
-5.936743330953667941e-07
-5.855418079844713266e-07
-5.855418079844713266e-07
-5.855418079844713266e-07
-5.774092828735758592e-07
-5.774092828735758592e-07
-5.774092828735758592e-07
-5.774092828735758592e-07
-5.692767577626804976e-07
-5.692767577626804976e-07
-5.692767577626804976e-07
-5.692767577626804976e-07
-5.611442326517850302e-07
-5.611442326517850302e-07
-5.611442326517850302e-07
-5.530117075408895627e-07
-5.530117075408895627e-07
-5.530117075408895627e-07
-5.530117075408895627e-07
-5.448791824299942011e-07
-5.448791824299942011e-07
-5.448791824299942011e-07
-5.448791824299942011e-07
-5.367466573190987337e-07
-5.367466573190987337e-07
-5.367466573190987337e-07
-5.367466573190987337e-07
-5.286141322082033721e-07
-5.286141322082033721e-07
-5.286141322082033721e-07
-5.286141322082033721e-07
-5.204816070973079047e-07
-5.204816070973079047e-07
-5.204816070973079047e-07
-5.204816070973079047e-07
-5.123490819864124373e-07
-5.123490819864124373e-07
-5.123490819864124373e-07
-5.123490819864124373e-07
-5.042165568755169698e-07
-5.042165568755169698e-07
-5.042165568755169698e-07
-5.042165568755169698e-07
-4.960840317646215024e-07
-4.960840317646215024e-07
-4.960840317646215024e-07
-4.960840317646215024e-07
-4.879515066537261408e-07
-4.879515066537261408e-07
-4.879515066537261408e-07
-4.879515066537261408e-07
-4.798189815428306734e-07
-4.798189815428306734e-07
-4.798189815428306734e-07
-4.798189815428306734e-07
-4.716864564319352059e-07
-4.716864564319352059e-07
-4.716864564319352059e-07
-4.716864564319352059e-07
-4.716864564319352059e-07
-4.635539313210398443e-07
-4.635539313210398443e-07
-4.635539313210398443e-07
-4.635539313210398443e-07
-4.554214062101444298e-07
-4.554214062101444298e-07
-4.554214062101444298e-07
-4.554214062101444298e-07
-4.554214062101444298e-07
-4.472888810992489624e-07
-4.472888810992489624e-07
-4.472888810992489624e-07
-4.472888810992489624e-07
-4.391563559883535479e-07
-4.391563559883535479e-07
-4.391563559883535479e-07
-4.391563559883535479e-07
-4.391563559883535479e-07
-4.310238308774580805e-07
-4.310238308774580805e-07
-4.310238308774580805e-07
-4.310238308774580805e-07
-4.310238308774580805e-07
-4.228913057665626659e-07
-4.228913057665626659e-07
-4.228913057665626659e-07
-4.228913057665626659e-07
-4.228913057665626659e-07
-4.147587806556671985e-07
-4.147587806556671985e-07
-4.147587806556671985e-07
-4.147587806556671985e-07
-4.147587806556671985e-07
-4.066262555447717311e-07
-4.066262555447717311e-07
-4.066262555447717311e-07
-4.066262555447717311e-07
-4.066262555447717311e-07
-3.984937304338763166e-07
-3.984937304338763166e-07
-3.984937304338763166e-07
-3.984937304338763166e-07
-3.984937304338763166e-07
-3.903612053229808491e-07
-3.903612053229808491e-07
-3.903612053229808491e-07
-3.903612053229808491e-07
-3.903612053229808491e-07
-3.822286802120854875e-07
-3.822286802120854875e-07
-3.822286802120854875e-07
-3.822286802120854875e-07
-3.822286802120854875e-07
-3.822286802120854875e-07
-3.740961551011900201e-07
-3.740961551011900201e-07
-3.740961551011900201e-07
-3.740961551011900201e-07
-3.740961551011900201e-07
-3.659636299902946056e-07
-3.659636299902946056e-07
-3.659636299902946056e-07
-3.659636299902946056e-07
-3.659636299902946056e-07
-3.659636299902946056e-07
-3.578311048793991911e-07
-3.578311048793991911e-07
-3.578311048793991911e-07
-3.578311048793991911e-07
-3.578311048793991911e-07
-3.578311048793991911e-07
-3.496985797685037237e-07
-3.496985797685037237e-07
-3.496985797685037237e-07
-3.496985797685037237e-07
-3.496985797685037237e-07
-3.496985797685037237e-07
-3.415660546576083091e-07
-3.415660546576083091e-07
-3.415660546576083091e-07
-3.415660546576083091e-07
-3.415660546576083091e-07
-3.415660546576083091e-07
-3.334335295467128417e-07
-3.334335295467128417e-07
-3.334335295467128417e-07
-3.334335295467128417e-07
-3.334335295467128417e-07
-3.334335295467128417e-07
-3.253010044358174272e-07
-3.253010044358174272e-07
-3.253010044358174272e-07
-3.253010044358174272e-07
-3.253010044358174272e-07
-3.253010044358174272e-07
-3.171684793249220127e-07
-3.171684793249220127e-07
-3.171684793249220127e-07
-3.171684793249220127e-07
-3.171684793249220127e-07
-3.171684793249220127e-07
-3.171684793249220127e-07
-3.090359542140265453e-07
-3.090359542140265453e-07
-3.090359542140265453e-07
-3.090359542140265453e-07
-3.090359542140265453e-07
-3.090359542140265453e-07
-3.090359542140265453e-07
-3.009034291031311307e-07
-3.009034291031311307e-07
-3.009034291031311307e-07
-3.009034291031311307e-07
-3.009034291031311307e-07
-3.009034291031311307e-07
-3.009034291031311307e-07
-2.927709039922356633e-07
-2.927709039922356633e-07
-2.927709039922356633e-07
-2.927709039922356633e-07
-2.927709039922356633e-07
-2.927709039922356633e-07
-2.927709039922356633e-07
-2.846383788813402488e-07
-2.846383788813402488e-07
-2.846383788813402488e-07
-2.846383788813402488e-07
-2.846383788813402488e-07
-2.846383788813402488e-07
-2.846383788813402488e-07
-2.765058537704447814e-07
-2.765058537704447814e-07
-2.765058537704447814e-07
-2.765058537704447814e-07
-2.765058537704447814e-07
-2.765058537704447814e-07
-2.765058537704447814e-07
-2.683733286595493669e-07
-2.683733286595493669e-07
-2.683733286595493669e-07
-2.683733286595493669e-07
-2.683733286595493669e-07
-2.683733286595493669e-07
-2.683733286595493669e-07
-2.683733286595493669e-07
-2.602408035486539523e-07
-2.602408035486539523e-07
-2.602408035486539523e-07
-2.602408035486539523e-07
-2.602408035486539523e-07
-2.602408035486539523e-07
-2.602408035486539523e-07
-2.602408035486539523e-07
-2.521082784377584849e-07
-2.521082784377584849e-07
-2.521082784377584849e-07
-2.521082784377584849e-07
-2.521082784377584849e-07
-2.521082784377584849e-07
-2.521082784377584849e-07
-2.521082784377584849e-07
-2.439757533268630704e-07
-2.439757533268630704e-07
-2.439757533268630704e-07
-2.439757533268630704e-07
-2.439757533268630704e-07
-2.439757533268630704e-07
-2.439757533268630704e-07
-2.439757533268630704e-07
-2.439757533268630704e-07
-2.358432282159676030e-07
-2.358432282159676030e-07
-2.358432282159676030e-07
-2.358432282159676030e-07
-2.358432282159676030e-07
-2.358432282159676030e-07
-2.358432282159676030e-07
-2.358432282159676030e-07
-2.358432282159676030e-07
-2.277107031050722149e-07
-2.277107031050722149e-07
-2.277107031050722149e-07
-2.277107031050722149e-07
-2.277107031050722149e-07
-2.277107031050722149e-07
-2.277107031050722149e-07
-2.277107031050722149e-07
-2.277107031050722149e-07
-2.195781779941767739e-07
-2.195781779941767739e-07
-2.195781779941767739e-07
-2.195781779941767739e-07
-2.195781779941767739e-07
-2.195781779941767739e-07
-2.195781779941767739e-07
-2.195781779941767739e-07
-2.195781779941767739e-07
-2.114456528832813330e-07
-2.114456528832813330e-07
-2.114456528832813330e-07
-2.114456528832813330e-07
-2.114456528832813330e-07
-2.114456528832813330e-07
-2.114456528832813330e-07
-2.114456528832813330e-07
-2.114456528832813330e-07
-2.114456528832813330e-07
-2.033131277723858655e-07
-2.033131277723858655e-07
-2.033131277723858655e-07
-2.033131277723858655e-07
-2.033131277723858655e-07
-2.033131277723858655e-07
-2.033131277723858655e-07
-2.033131277723858655e-07
-2.033131277723858655e-07
-2.033131277723858655e-07
-1.951806026614904246e-07
-1.951806026614904246e-07
-1.951806026614904246e-07
-1.951806026614904246e-07
-1.951806026614904246e-07
-1.951806026614904246e-07
-1.951806026614904246e-07
-1.951806026614904246e-07
-1.951806026614904246e-07
-1.951806026614904246e-07
-1.951806026614904246e-07
-1.870480775505950101e-07
-1.870480775505950101e-07
-1.870480775505950101e-07
-1.870480775505950101e-07
-1.870480775505950101e-07
-1.870480775505950101e-07
-1.870480775505950101e-07
-1.870480775505950101e-07
-1.870480775505950101e-07
-1.870480775505950101e-07
-1.870480775505950101e-07
-1.789155524396995955e-07
-1.789155524396995955e-07
-1.789155524396995955e-07
-1.789155524396995955e-07
-1.789155524396995955e-07
-1.789155524396995955e-07
-1.789155524396995955e-07
-1.789155524396995955e-07
-1.789155524396995955e-07
-1.789155524396995955e-07
-1.789155524396995955e-07
-1.707830273288041546e-07
-1.707830273288041546e-07
-1.707830273288041546e-07
-1.707830273288041546e-07
-1.707830273288041546e-07
-1.707830273288041546e-07
-1.707830273288041546e-07
-1.707830273288041546e-07
-1.707830273288041546e-07
-1.707830273288041546e-07
-1.707830273288041546e-07
-1.707830273288041546e-07
-1.626505022179087136e-07
-1.626505022179087136e-07
-1.626505022179087136e-07
-1.626505022179087136e-07
-1.626505022179087136e-07
-1.626505022179087136e-07
-1.626505022179087136e-07
-1.626505022179087136e-07
-1.626505022179087136e-07
-1.626505022179087136e-07
-1.626505022179087136e-07
-1.626505022179087136e-07
-1.626505022179087136e-07
-1.545179771070132726e-07
-1.545179771070132726e-07
-1.545179771070132726e-07
-1.545179771070132726e-07
-1.545179771070132726e-07
-1.545179771070132726e-07
-1.545179771070132726e-07
-1.545179771070132726e-07
-1.545179771070132726e-07
-1.545179771070132726e-07
-1.545179771070132726e-07
-1.545179771070132726e-07
-1.545179771070132726e-07
-1.545179771070132726e-07
-1.463854519961178317e-07
-1.463854519961178317e-07
-1.463854519961178317e-07
-1.463854519961178317e-07
-1.463854519961178317e-07
-1.463854519961178317e-07
-1.463854519961178317e-07
-1.463854519961178317e-07
-1.463854519961178317e-07
-1.463854519961178317e-07
-1.463854519961178317e-07
-1.463854519961178317e-07
-1.463854519961178317e-07
-1.463854519961178317e-07
-1.382529268852223907e-07
-1.382529268852223907e-07
-1.382529268852223907e-07
-1.382529268852223907e-07
-1.382529268852223907e-07
-1.382529268852223907e-07
-1.382529268852223907e-07
-1.382529268852223907e-07
-1.382529268852223907e-07
-1.382529268852223907e-07
-1.382529268852223907e-07
-1.382529268852223907e-07
-1.382529268852223907e-07
-1.382529268852223907e-07
-1.382529268852223907e-07
-1.301204017743269762e-07
-1.301204017743269762e-07
-1.301204017743269762e-07
-1.301204017743269762e-07
-1.301204017743269762e-07
-1.301204017743269762e-07
-1.301204017743269762e-07
-1.301204017743269762e-07
-1.301204017743269762e-07
-1.301204017743269762e-07
-1.301204017743269762e-07
-1.301204017743269762e-07
-1.301204017743269762e-07
-1.301204017743269762e-07
-1.301204017743269762e-07
-1.301204017743269762e-07
-1.219878766634315352e-07
-1.219878766634315352e-07
-1.219878766634315352e-07
-1.219878766634315352e-07
-1.219878766634315352e-07
-1.219878766634315352e-07
-1.219878766634315352e-07
-1.219878766634315352e-07
-1.219878766634315352e-07
-1.219878766634315352e-07
-1.219878766634315352e-07
-1.219878766634315352e-07
-1.219878766634315352e-07
-1.219878766634315352e-07
-1.219878766634315352e-07
-1.219878766634315352e-07
-1.219878766634315352e-07
-1.138553515525361075e-07
-1.138553515525361075e-07
-1.138553515525361075e-07
-1.138553515525361075e-07
-1.138553515525361075e-07
-1.138553515525361075e-07
-1.138553515525361075e-07
-1.138553515525361075e-07
-1.138553515525361075e-07
-1.138553515525361075e-07
-1.138553515525361075e-07
-1.138553515525361075e-07
-1.138553515525361075e-07
-1.138553515525361075e-07
-1.138553515525361075e-07
-1.138553515525361075e-07
-1.138553515525361075e-07
-1.138553515525361075e-07
-1.057228264416406665e-07
-1.057228264416406665e-07
-1.057228264416406665e-07
-1.057228264416406665e-07
-1.057228264416406665e-07
-1.057228264416406665e-07
-1.057228264416406665e-07
-1.057228264416406665e-07
-1.057228264416406665e-07
-1.057228264416406665e-07
-1.057228264416406665e-07
-1.057228264416406665e-07
-1.057228264416406665e-07
-1.057228264416406665e-07
-1.057228264416406665e-07
-1.057228264416406665e-07
-1.057228264416406665e-07
-1.057228264416406665e-07
-1.057228264416406665e-07
-9.759030133074521228e-08
-9.759030133074521228e-08
-9.759030133074521228e-08
-9.759030133074521228e-08
-9.759030133074521228e-08
-9.759030133074521228e-08
-9.759030133074521228e-08
-9.759030133074521228e-08
-9.759030133074521228e-08
-9.759030133074521228e-08
-9.759030133074521228e-08
-9.759030133074521228e-08
-9.759030133074521228e-08
-9.759030133074521228e-08
-9.759030133074521228e-08
-9.759030133074521228e-08
-9.759030133074521228e-08
-9.759030133074521228e-08
-9.759030133074521228e-08
-9.759030133074521228e-08
-9.759030133074521228e-08
-9.759030133074521228e-08
-8.945777621984979777e-08
-8.945777621984979777e-08
-8.945777621984979777e-08
-8.945777621984979777e-08
-8.945777621984979777e-08
-8.945777621984979777e-08
-8.945777621984979777e-08
-8.945777621984979777e-08
-8.945777621984979777e-08
-8.945777621984979777e-08
-8.945777621984979777e-08
-8.945777621984979777e-08
-8.945777621984979777e-08
-8.945777621984979777e-08
-8.945777621984979777e-08
-8.945777621984979777e-08
-8.945777621984979777e-08
-8.945777621984979777e-08
-8.945777621984979777e-08
